{
  "fields": {
    "avgProjectSize": {
      "name": "avgProjectSize",
      "id": "avgProjectSize",
      "formGroupClass" : "order-md-1",
      "type": "text",
      "min": "1.00",
      "step": "0.01",
      "decimals": "auto",
      "currency": "$",
      "title": "Requires amount in $ greater than zero",
      "placeholder": "",
      "default": "",
      "value": "",
      "label": "Average Project Size (in $)",
      "required": true,
      "validation": "numberHasThousandSeparator|greaterThanZero",
      "error": "",
      "description": "",
      "tabindex": "1"
    },
    "estProjectsPerYear": {
      "name": "estProjectsPerYear",
      "id": "estProjectsPerYear",
      "formGroupClass" : "order-md-3",
      "type": "text",
      "min": "1",
      "step": "1",
      "title": "",
      "placeholder": "",
      "default": "",
      "value": "",
      "label": "Estimated number of projects per year",
      "required": true,
      "validation": "numberHasThousandSeparator|greaterThanEqualsOne",
      "error": "",
      "description": "",
      "tabindex": "2"
    },
    "estProposalsPerYear": {
      "name": "estProposalsPerYear",
      "id": "estProposalsPerYear",
      "formGroupClass" : "order-md-5",
      "type": "text",
      "min": "1",
      "step": "1",
      "title": "",
      "placeholder": "",
      "default": "",
      "value": "",
      "label": "Estimated number of proposals per year",
      "required": true,
      "validation": "numberHasThousandSeparator|greaterThanEqualsOne",
      "error": "",
      "description": "",
      "tabindex": "3"
    },
    "avgTimeToGenerateProposal": {
      "name": "avgTimeToGenerateProposal",
      "id": "avgTimeToGenerateProposal",
      "formGroupClass" : "order-md-7",
      "type": "text",
      "min": "1.00",
      "step": ".01",
      "decimals": "auto",
      "title": "",
      "placeholder": "",
      "default": "",
      "value": "",
      "label": "Average time to generate a proposal (in hrs.)",
      "required": true,
      "validation": "numberHasThousandSeparator|greaterThanZero",
      "error": "",
      "description": "",
      "tabindex": "4"
    },
    "percentProjectWhereDrawing": {
      "name": "percentProjectWhereDrawing",
      "id": "percentProjectWhereDrawing",
      "formGroupClass" : "order-md-9",
      "type": "text",
      "min": "1.00",
      "step": ".01",
      "decimals": "auto",
      "title": "",
      "placeholder": "",
      "default": "",
      "value": "",
      "label": "Percent of projects you create drawings for",
      "required": true,
      "validation": "numberHasThousandSeparator|greaterThanZero",
      "error": "",
      "description": "",
      "tabindex": "5"
    },
    "avgTimeToGenerateDrawingSet": {
      "name": "avgTimeToGenerateDrawingSet",
      "id": "avgTimeToGenerateDrawingSet",
      "formGroupClass" : "order-md-11",
      "type": "text",
      "min": "1.00",
      "step": ".01",
      "decimals": "auto",
      "title": "",
      "placeholder": "",
      "default": "",
      "value": "",
      "label": "Average time to generate a drawing set (in hrs.)",
      "required": true,
      "validation": "numberHasThousandSeparator|greaterThanZero",
      "error": "",
      "description": "",
      "tabindex": "6"
    },
    "avgWireLabelsPerProject": {
      "name": "avgWireLabelsPerProject",
      "id": "avgWireLabelsPerProject",
      "formGroupClass" : "order-md-13",
      "type": "text",
      "min": "1",
      "step": "1",
      "title": "",
      "placeholder": "",
      "default": "",
      "value": "",
      "label": "Average number of wire labels per project",
      "required": true,
      "validation": "numberHasThousandSeparator|greaterThanEqualsOne",
      "error": "",
      "description": "",
      "tabindex": "7"
    },
    "isWorkOrdersForTech": {
      "name": "isWorkOrdersForTech",
      "id": "isWorkOrdersForTech",
      "formGroupClass" : "order-md-15",
      "type": "select-yn",
      "title": "",
      "placeholder": "",
      "default": "",
      "value": "",
      "label": "Do you currently issue work orders for techs?",
      "required": true,
      "validation": "required",
      "error": "",
      "description": "",
      "tabindex": "8"
    },
    "numberOfPOPerProject": {
      "name": "numberOfPOPerProject",
      "id": "numberOfPOPerProject",
      "formGroupClass" : "order-md-17",
      "type": "text",
      "min": "0",
      "step": "1",
      "title": "",
      "placeholder": "",
      "default": "",
      "value": "",
      "label": "Estimated number of POs issued per project",
      "required": true,
      "validation": "numberHasThousandSeparator|greaterThanEqualsOne",
      "error": "",
      "description": "",
      "tabindex": "9"
    },

    "avgHourCostPerPersonGenProposal": {
      "name": "avgHourCostPerPersonGenProposal",
      "id": "avgHourCostPerPersonGenProposal",
      "formGroupClass" : "order-md-2",
      "type": "text",
      "min": "1.00",
      "step": "0.01",
      "decimals": "auto",
      "currency": "$",
      "title": "",
      "placeholder": "",
      "default": "",
      "value": "",
      "label": "Average hourly cost for person(s) generating proposals (in $)",
      "required": true,
      "validation": "numberHasThousandSeparator|greaterThanZero",
      "error": "",
      "description": "",
      "tabindex": "10"
    },
    "avgHourCostPerPersonGenDrawing": {
      "name": "avgHourCostPerPersonGenDrawing",
      "id": "avgHourCostPerPersonGenDrawing",
      "formGroupClass" : "order-md-4",
      "type": "text",
      "min": "1.00",
      "step": "0.01",
      "decimals": "auto",
      "currency": "$",
      "title": "",
      "placeholder": "",
      "default": "",
      "value": "",
      "label": "Average hourly cost for person(s) generating drawings (in $)",
      "required": true,
      "validation": "numberHasThousandSeparator|greaterThanZero",
      "error": "",
      "description": "",
      "tabindex": "11"
    },
    "avgHourCostTechnician": {
      "name": "avgHourCostTechnician",
      "id": "avgHourCostTechnician",
      "formGroupClass" : "order-md-6",
      "type": "text",
      "min": "1.00",
      "step": ".01",
      "decimals": "auto",
      "currency": "$",
      "title": "",
      "placeholder": "",
      "default": "",
      "value": "",
      "label": "Average hourly cost for technicians (in $)",
      "required": true,
      "validation": "numberHasThousandSeparator|greaterThanZero",
      "error": "",
      "description": "",
      "tabindex": "12"
    },
    "hiddenField00": {
      "name": "hiddenField00",
      "id": "hiddenField0",
      "formGroupClass" : "order-md-8",
      "type": "hidden",
      "title": "",
      "placeholder": "",
      "default": "0",
      "value": "0",
      "label": "",
      "required": false,
      "validation": "",
      "error": "",
      "description": "",
      "tabindex": "4"
    },
    "estSoftLicenses": {
      "name": "estSoftLicenses",
      "id": "estSoftLicenses",
      "formGroupClass" : "order-md-10",
      "type": "text",
      "min": "1",
      "step": "1",
      "title": "",
      "placeholder": "",
      "default": "",
      "value": "",
      "label": "Estimated number of software licenses required",
      "required": true,
      "validation": "numberHasThousandSeparator",
      "error": "",
      "description": "",
      "rows": 2,
      "tabindex": "13"
    },
    "hiddenField01": {
      "name": "hiddenField01",
      "id": "hiddenField01",
      "formGroupClass" : "order-md-12",
      "type": "hidden",
      "title": "",
      "placeholder": "",
      "default": "0",
      "value": "0",
      "label": "",
      "required": false,
      "validation": "",
      "error": "",
      "description": "",
      "tabindex": "14"
    },
    "numberOfSalesPerson": {
      "name": "numberOfSalesPerson",
      "id": "numberOfSalesPerson",
      "formGroupClass" : "order-md-14",
      "type": "text",
      "min": "0",
      "step": "1",
      "title": "",
      "placeholder": "",
      "default": "",
      "value": "",
      "label": "Number of sales people",
      "required": true,
      "validation": "numberHasThousandSeparator",
      "error": "",
      "description": "",
      "tabindex": "15"
    },
    "numberOfFieldPerson": {
      "name": "numberOfFieldPerson",
      "id": "numberOfFieldPerson",
      "formGroupClass" : "order-md-16",
      "type": "text",
      "min": "0",
      "step": "1",
      "title": "",
      "placeholder": "",
      "default": "",
      "value": "",
      "label": "Number of field technicians",
      "required": true,
      "validation": "numberHasThousandSeparator",
      "error": "",
      "description": "",
      "tabindex": "16"
    },
    "isUsingQuickBooks": {
      "name": "isUsingQuickBooks",
      "id": "isUsingQuickBooks",
      "formGroupClass" : "order-md-18",
      "type": "select-yn",
      "title": "",
      "placeholder": "",
      "default": "",
      "value": "",
      "label": "Does your company use QuickBooks?",
      "required": true,
      "validation": "required",
      "error": "",
      "description": "",
      "tabindex": "17"
    }
  }
}
